0	0.5	359686.0
1	0.5	362962.0
2	0.5	421069.0
3	0.5	280931.0
4	0.5	259828.0
5	0.5	259163.0
6	0.5	223238.0
7	0.5	185001.0
8	0.5	303272.0
9	0.5	358818.0
10	0.5	297570.0
11	0.5	274561.0
12	0.5	205568.0
13	0.5	57668.0
14	0.5	37051.0
15	0.5	23523.0
16	0.5	37154.0
17	0.5	408720.0
18	0.5	319750.0
19	0.5	249015.0
20	0.5	219431.0
21	0.5	426299.0
22	0.5	253094.0
23	0.5	276314.0
24	0.5	233661.0
25	0.5	262608.0
26	0.5	238643.0
27	0.5	197474.0
28	0.5	234104.0
29	0.5	198984.0
30	0.5	232312.0
31	0.5	310299.0
32	0.5	713146.0
33	0.5	1497366.0
34	0.5	866862.0
35	0.5	715192.0
36	0.5	263634.0
37	0.5	329594.0
38	0.5	298030.0
39	0.5	515423.0
40	0.5	580885.0
41	0.5	1497366.0
42	0.5	1497366.0
43	0.5	1497366.0
44	0.5	866862.0
45	0.5	598530.0
46	0.5	438387.0
47	0.5	240148.0
48	0.5	160216.0
49	0.5	126085.0
50	0.5	44978.0
51	0.5	82843.0
52	0.5	82573.0
53	0.5	59595.0
54	0.5	243696.0
55	0.5	216663.0
56	0.5	226945.0
57	0.5	274561.0
58	0.5	259806.0
59	0.5	326169.0
60	0.5	311926.0
61	0.5	236329.0
62	0.5	287100.0
63	0.5	180622.0
64	0.5	229762.0
65	0.5	324617.0
66	0.5	410226.0
67	0.5	324617.0
68	0.5	189249.0
69	0.5	294507.0
70	0.5	269437.0
71	0.5	318393.0
72	0.5	291233.0
73	0.5	333045.0
74	0.5	240207.0
75	0.5	233522.0
76	0.5	249015.0
77	0.5	219431.0
78	0.5	426299.0
79	0.5	470984.0
80	0.5	387119.0
81	0.5	348334.0
82	0.5	320378.0
83	0.5	287925.0
84	0.5	382234.0
85	0.5	598530.0
86	0.5	269784.0
87	0.5	185829.0
88	0.5	281911.0
89	0.5	426835.0
90	0.5	364660.0
91	0.5	412601.0
92	0.5	336683.0
93	0.5	358852.0
94	0.5	371489.0
95	0.5	279571.0
96	0.5	279571.0
97	0.5	279571.0
98	0.5	279571.0
99	0.5	279571.0
